<?xml version="1.0" encoding="utf-8"?>
<!-- Generator: Adobe Illustrator 21.1.0, SVG Export Plug-In . SVG Version: 6.00 Build 0)  -->
<svg version="1.1" id="Ebene_1" xmlns="http://www.w3.org/2000/svg" xmlns:xlink="http://www.w3.org/1999/xlink" x="0px" y="0px"
	 viewBox="0 0 756 542" style="enable-background:new 0 0 756 542;" xml:space="preserve">
<style type="text/css">
	.Grafikstil{fill:none;}
	.st0{fill:#FFFFFF;}
	.st1{font-family:'Roboto-Medium';}
	.st2{font-size:102px;}
</style>
<font horiz-adv-x="2048">
<!-- Roboto is a trademark of Google. -->
<!-- Copyright: Copyright 2017 Adobe System Incorporated. All rights reserved. -->
<font-face font-family="Roboto-Medium" units-per-em="2048" underline-position="-150" underline-thickness="100"/>
<missing-glyph horiz-adv-x="908" d="M808,0l-708,0l0,1456l708,0M754,84l0,1287l-274,-643M154,1359l0,-1263l268,632M194,54l515,0l-258,606M451,796l258,606l-515,0z"/>
<glyph unicode="." horiz-adv-x="572" d="M276,256C321,256 356,243 381,218C406,192 418,160 418,121C418,83 406,52 381,27C356,2 321,-11 276,-11C233,-11 198,1 173,26C148,51 135,82 135,121C135,160 147,192 172,218C197,243 231,256 276,256z"/>
<glyph unicode="A" horiz-adv-x="1363" d="M963,339l-564,0l-118,-339l-263,0l550,1456l227,0l551,-1456l-264,0M470,543l422,0l-211,604z"/>
<glyph unicode="d" horiz-adv-x="1156" d="M79,549C79,716 118,850 195,951C272,1052 376,1102 506,1102C621,1102 713,1062 784,982l0,554l243,0l0,-1536l-220,0l-12,112C722,24 625,-20 504,-20C377,-20 275,31 197,133C118,235 79,374 79,549M322,528C322,418 343,332 386,271C428,209 488,178 566,178C665,178 738,222 784,311l0,462C739,860 667,903 568,903C489,903 429,872 386,810C343,747 322,653 322,528z"/>
<glyph unicode="e" horiz-adv-x="1099" d="M601,-20C447,-20 322,29 227,126C131,223 83,352 83,513l0,30C83,651 104,748 146,833C187,918 246,984 321,1031C396,1078 480,1102 573,1102C720,1102 834,1055 915,961C995,867 1035,734 1035,562l0,-98l-707,0C335,375 365,304 418,252C470,200 536,174 615,174C726,174 817,219 887,309l131,-125C975,119 917,69 845,34C772,-2 691,-20 601,-20M572,907C505,907 452,884 411,837C370,790 343,725 332,642l463,0l0,18C790,741 768,803 730,845C692,886 639,907 572,907z"/>
<glyph unicode="g" horiz-adv-x="1161" d="M82,549C82,717 122,851 201,952C280,1052 384,1102 515,1102C638,1102 735,1059 806,973l11,109l219,0l0,-1049C1036,-109 992,-221 904,-303C815,-385 696,-426 546,-426C467,-426 389,-409 314,-376C238,-343 180,-300 141,-247l115,146C331,-190 423,-234 532,-234C613,-234 676,-212 723,-168C770,-125 793,-61 793,24l0,73C723,19 630,-20 513,-20C386,-20 283,30 203,131C122,232 82,371 82,549M324,528C324,419 346,334 391,272C435,209 496,178 575,178C673,178 746,220 793,304l0,476C747,862 675,903 577,903C497,903 435,871 391,808C346,745 324,651 324,528z"/>
<glyph unicode="m" horiz-adv-x="1782" d="M353,1082l7,-113C436,1058 540,1102 672,1102C817,1102 916,1047 969,936C1048,1047 1158,1102 1301,1102C1420,1102 1509,1069 1568,1003C1626,937 1656,840 1657,711l0,-711l-243,0l0,704C1414,773 1399,823 1369,855C1339,887 1289,903 1220,903C1165,903 1120,888 1085,859C1050,829 1025,790 1011,742l1,-742l-243,0l0,712C766,839 701,903 574,903C477,903 408,863 367,784l0,-784l-243,0l0,1082z"/>
<glyph unicode="n" horiz-adv-x="1139" d="M350,1082l7,-125C437,1054 542,1102 672,1102C897,1102 1012,973 1016,715l0,-715l-243,0l0,701C773,770 758,821 729,854C699,887 650,903 583,903C485,903 412,859 364,770l0,-770l-243,0l0,1082z"/>
<glyph unicode="t" horiz-adv-x="681" d="M429,1345l0,-263l191,0l0,-180l-191,0l0,-604C429,257 437,227 454,209C470,190 499,181 541,181C569,181 597,184 626,191l0,-188C571,-12 517,-20 466,-20C279,-20 186,83 186,289l0,613l-178,0l0,180l178,0l0,263z"/>
</font>

	<g id="layer1">
	<path class="st0" d="M317.9,317.3c-65.4-82.2-95.6-120.5-118.8-150.8c-8.5-11-15.8-20.6-16.4-21.2c-1.3-1.8,0.1-3.2,11-11.5
		c9.1-6.8,9.4-7.1,8.8-10.2c-1.1-5.3-4.2-10.8-10-17.8c-3-3.6-5.5-6.9-5.5-7.3s2.9-3.9,6.4-7.9c3.4-3.9,13.2-15.6,21.6-26.1
		c16.7-20.7,31.2-37.4,38.4-44.5l4.6-4.5h121.7h121.6l34.3,41.4l34.3,41.5l-2.6,3.5c-1.4,2-6,7.8-10.1,12.9
		c-4.2,5.2-7.1,9.7-6.6,10.1c0.5,0.5,6.2,4.5,12.7,9c6.4,4.6,11.7,8.7,11.7,9.2c0,1.7-26.1,35.6-63.6,82.6
		c-19.6,24.6-45.1,56.8-56.7,71.7c-32.7,42-65.9,82.9-75.6,92.9C377.5,392,374.5,388.4,317.9,317.3z M383.5,333.8
		c3.2-2.9,9.2-9.7,13.3-15.3c4.2-5.5,11.7-15.2,16.7-21.5c5-6.3,30.7-39.2,57-73c26.3-33.8,52.9-67.8,59-75.5s12.3-15.7,13.8-17.7
		l2.8-3.6l-2.2-4.4c-3.6-7.1-9.4-15.4-23.3-33.3c-7.3-9.3-16.2-20.9-20-25.8c-10.8-14-7.6-13.2-54.5-13c-21.7,0.2-39.6,0.5-39.8,0.7
		c-0.8,0.8-6.3,30.1-6.9,36.6c-0.7,7.5,1.8,35.4,11,122l6.3,59.5l-9.5,13c-8.1,11-16.4,21.7-26.8,34.3c-1.1,1.4-2.6,2.2-3.2,1.8
		c-1.2-0.7-24.8-32.7-32.1-43.5l-4.4-6.4l4.7-47.1c2.6-25.9,6.5-64,8.7-84.6c2.1-20.6,3.9-40.6,3.9-44.4c0-3.9-1.3-12.5-2.9-20
		c-1.6-7.2-3.2-15.2-3.5-17.8l-0.7-4.7h-17.7c-9.7-0.1-20.8-0.4-24.7-0.7c-7.9-0.7-30.4,0.9-38.3,2.7c-4.7,1.1-5.8,1.9-11.5,8.8
		c-3.5,4.2-12.4,15.7-19.9,25.6s-17.4,22.4-22.2,27.7l-8.6,9.7l40.8,51.8c42.3,53.6,76.3,97.4,108.2,139.1
		c10.2,13.3,19,24.2,19.7,24.2C377.3,339,380.4,336.7,383.5,333.8z"/>
</g>
<text transform="matrix(1 0 0 1 22 481)" class="st0 st1 st2">AmtAgenten.de</text>
</svg>
